quai [a-z\-]+,roads,english
quai [a-z\-]+ [a-z\-]+,roads,english
cours [a-z\-]+,roads,english
cours [a-z\-]+ [a-z\-]+,roads,english
place [a-z\-]+,roads,english
place [a-z\-]+ [a-z\-]+,roads,english
rue [a-z\-]+,roads,english
rue [a-z\-]+ [a-z\-]+,roads,english
chemin [a-z\-]+,roads,english
chemin [a-z\-]+ [a-z\-]+,roads,english
grand rue [a-z\-]+,roads,english
grand rue [a-z\-]+ [a-z\-]+,roads,english
avenue [a-z\-]+,roads,english
avenue [a-z\-]+ [a-z\-]+,roads,english
route [a-z\-]+,roads,english
route [a-z\-]+ [a-z\-]+,roads,english
av [a-z\-]+,roads,english
av [a-z\-]+ [a-z\-]+,roads,english
passage [a-z\-]+,roads,english
passage [a-z\-]+ [a-z\-]+,roads,english
rte [a-z\-]+,roads,english
rte [a-z\-]+ [a-z\-]+,roads,english
ch [a-z\-]+,roads,english
ch [a-z\-]+ [a-z\-]+,roads,english
